{
  "Templates": [
    {
      "name": "Pos",
      "created_class": "Characteristic",
      "value_type": "tuple"
    },
    {
      "name": "Pos2",
      "created_class": "Characteristic",
      "value_type": "tuple"
    },
    {
      "name": "Talk",
      "created_class": "Characteristic",
      "value_type": "str",
      "default_value": ""
    },
    {
      "name": "Name",
      "created_class": "Characteristic",
      "value_type": "str",
      "default_value": ""
    },
    {
      "name": "BaseObjectState",
      "created_class": "ObjectState",
      "subclass_templates": [
        "Name",
        "Pos"
      ]
    },
    {
      "name": "RectangleObjectState",
      "created_class": "ObjectState",
      "subclass_templates":[
        "Pos2"
      ],
      "subclass_inheritance": [
        "BaseObjectState"
      ]
    },
    {
      "name": "BaseAgentState",
      "created_class": "ObjectState",
      "subclass_templates":[
        "Talk"
      ],
      "subclass_inheritance": [
        "BaseObjectState"
      ]
    },
    {
      "name": "PlayerAgentState",
      "created_class": "ObjectState",
      "subclass_inheritance": [
        "BaseAgentState"
      ]
    },
    {
      "name": "Player",
      "nature": "Player",
      "created_class": "Agent",
      "subclass_templates": [
        "PlayerAgentState"
      ]
    },
    {
      "name": "Wall",
      "nature": "wall",
      "created_class": "Object",
      "subclass_templates": [
        "BaseObjectState"
      ]
    },
    {
      "name": "Door",
      "nature": "door",
      "created_class": "Object",
      "subclass_templates": [
        "BaseObjectState"
      ]
    },
    {
      "name": "ShelfUL",
      "nature": "cabinetul",
      "created_class": "Object",
      "subclass_templates": [
        "RectangleObjectState"
      ]
    },
    {
      "name": "ShelfUR",
      "nature": "cabinetur",
      "created_class": "Object",
      "subclass_templates": [
        "RectangleObjectState"
      ]
    },
    {
      "name": "ShelfDL",
      "nature": "cabinetdl",
      "created_class": "Object",
      "subclass_templates": [
        "RectangleObjectState"
      ]
    },
    {
      "name": "ShelfDR",
      "nature": "cabinetdr",
      "created_class": "Object",
      "subclass_templates": [
        "RectangleObjectState"
      ]
    },
    {
      "name": "BedUp",
      "nature": "bedup",
      "created_class": "Object",
      "subclass_templates": [
        "RectangleObjectState"
      ]
    },
    {
      "name": "BedDown",
      "nature": "beddown",
      "created_class": "Object",
      "subclass_templates": [
        "RectangleObjectState"
      ]
    },
    {
      "name": "State",
      "created_class": "State"
    }
  ]
}